<?xml version="1.0" encoding="utf-8"?>
<svg version="1.1" xmlns="http://www.w3.org/2000/svg" xmlns:xlink="http://www.w3.org/1999/xlink" x="0px" y="0px"
	 viewBox="0 90 586 350" style="enable-background:new 0 0 586 559;" xml:space="preserve">
<style type="text/css">
	.glst3{fill:#E24329;}
	.glst4{fill:#FCA326;}
	.glst5{fill:#FC6D26;}
	.glst14{display:none;}
	.glst15{display:inline;opacity:0.1;fill:#E828E3;}
	.glst16{display:inline;}
	.glst18{font-family:'SourceSansPro-Semibold';}
	.st19{font-size:24px;}
</style>
<g id="logo_art">
	<g>
		<path id="path50_2_" class="glst3" d="M293.026,434.983L293.026,434.983l62.199-191.322H230.918L293.026,434.983L293.026,434.983z"
			/>
		<path id="path66_6_" class="glst4" d="M143.798,243.662L143.798,243.662l-18.941,58.126c-1.714,5.278,0.137,11.104,4.661,14.394
			l163.509,118.801L143.798,243.662L143.798,243.662z"/>
		<path id="path74_2_" class="glst3" d="M143.798,243.662h87.12l-37.494-115.224c-1.919-5.895-10.282-5.895-12.27,0L143.798,243.662
			L143.798,243.662z"/>
		<path id="path82_6_" class="glst4" d="M442.346,243.662L442.346,243.662l18.873,58.126c1.714,5.278-0.137,11.104-4.661,14.394
			L293.026,434.983L442.346,243.662L442.346,243.662z"/>
		<path id="path86_2_" class="glst3" d="M442.346,243.662h-87.12l37.425-115.224c1.919-5.895,10.282-5.895,12.27,0L442.346,243.662
			L442.346,243.662z"/>
		<polygon class="glst5" points="293.026,434.983 355.225,243.662 442.346,243.662 		"/>
		<polygon class="glst5" points="293.026,434.983 143.798,243.662 230.918,243.662 		"/>
	</g>
</g>
<g id="spacing_guides" xmlns:sketch="http://www.bohemiancoding.com/sketch/ns" class="glst14">
	<path id="path40_18_" sketch:type="MSShapeGroup" class="gl" d="M0,0.5v124h586V0.5H0L0,0.5z"/>
	<path id="path40_16_" sketch:type="MSShapeGroup" class="glst15" d="M0,435.5v124h586v-124H0L0,435.5z"/>
	<path id="path40_15_" sketch:type="MSShapeGroup" class="glst15" d="M462.2,560h124V0h-124V560L462.2,560z"/>
	<g class="glst16">
		<text transform="matrix(1 0 0 1 511.2881 283.3319)" class="glst19">1x</text>
	</g>
	<g class="glst16">
		<text transform="matrix(1 0 0 1 281.2881 500.9978)" class="glst18 glst19">1x</text>
	</g>
	<g class="glst16">
		<text transform="matrix(1 0 0 1 281.2881 65.998)" class="glst18 glst19">1x</text>
	</g>
	<path id="path40_5_" sketch:type="MSShapeGroup" class="st15" d="M0,560h124V0H0V560L0,560z"/>
	<g class="glst16">
		<text transform="matrix(1 0 0 1 51.2881 283.3319)" class="glst18 glst19">1x</text>
	</g>
</g>
</svg>
